[Assess] Bracero Farmworker Case Study – ES-202 Course Website
…
bracero |> 
 mutate(subject_binary = ifelse(subject %in%c("bracero", "Bracero"), "Bracero", "Non-bracero"))

# A tibble: 90 × 8
   title      subject description date  identifier language  year subject_binary
   <chr>      <chr>   <chr>       <chr> <chr>      <chr>    <dbl> <chr>         
 1 Richard H… Doña A… "Biographi… 2003… https://b… eng       2003 Non-bracero   
 2 Pedro Can… Bracero "Biographi… 2005… https://b… spa       2005 Bracero       
 3 Asterio L… Bracero "Biographi… 2006… https://b… spa       2006 Bracero       
 4 Vincente … Bracero "Biographi… 2005… https://b… spa       2005 Bracero       
 5 Inez Rios  Intera… "Biographi… 2003… https://b… eng       2003 Non-bracero   
 6 Manuel En… Bureau… "Biographi… 2003… https://b… spa       2003 Non-bracero   
 7 Alberto M… Bracero "Biographi… 2005… https://b… spa       2005 Bracero       
 8 Ernesto E… Son of… "Biographi… 2005… https://b… eng       2005 Non-bracero   
 9 Jesús Ort… Bracero "Biographi… 2005… https://b… spa       2005 Bracero       
10 José G. C… Son of… "Biographi… 2005… https://b… spa       2005 Non-bracero   
# ℹ 80 more rows
…
# select columns in a row, except the column you don't want
bracero |>
  select(title:description, identifier:year)

rename() function

rename() changes the names of current columns

let’s rename title to something more descriptive like interviewee.

bracero |>
  rename("interviewee" = "title")

# A tibble: 90 × 7
   interviewee              subject  description date  identifier language  year
   <chr>                    <chr>    <chr>       <chr> <chr>      <chr>    <dbl>
 1 Richard Hancock          Doña An… "Biographi… 2003… https://b… eng       2003
 2 Pedro Cantor             Bracero  "Biographi… 2005… https://b… spa       2005
 3 Asterio López León       Bracero  "Biographi… 2006… https://b… spa       2006
 4 Vincente Delgado         Bracero  "Biographi… 2005… https://b… spa       2005
 5 Inez Rios                Interac… "Biographi… 2003… https://b… eng       2003
 6 Manuel Enriquez Savignac Bureau … "Biographi… 2003… https://b… spa       2003
 7 Alberto Montes González  Bracero  "Biographi… 2005… https://b… spa       2005
 8 Ernesto Espino           Son of … "Biographi… 2005… https://b… eng       2005
 9 Jesús Ortíz Torres       Bracero  "Biographi… 2005… https://b… spa       2005
10 José G. Corral           Son of … "Biographi… 2005… https://b… spa       2005
# ℹ 80 more rows

relocate() function

relocate() changes the position of columns

relocate() automatically puts the column at the front, so you have to specify the column’s location, and .after or .before.

bracero |> 
 relocate(identifier, .after = language)

# A tibble: 90 × 7
   title                    subject  description date  language identifier  year
   <chr>                    <chr>    <chr>       <chr> <chr>    <chr>      <dbl>
 1 Richard Hancock          Doña An… "Biographi… 2003… eng      https://b…  2003
 2 Pedro Cantor             Bracero  "Biographi… 2005… spa      https://b…  2005
 3 Asterio López León       Bracero  "Biographi… 2006… spa      https://b…  2006
 4 Vincente Delgado         Bracero  "Biographi… 2005… spa      https://b…  2005
 5 Inez Rios                Interac… "Biographi… 2003… eng      https://b…  2003
 6 Manuel Enriquez Savignac Bureau … "Biographi… 2003… spa      https://b…  2003
 7 Alberto Montes González  Bracero  "Biographi… 2005… spa      https://b…  2005
 8 Ernesto Espino           Son of … "Biographi… 2005… eng      https://b…  2005
 9 Jesús Ortíz Torres       Bracero  "Biographi… 2005… spa      https://b…  2005
10 José G. Corral           Son of … "Biographi… 2005… spa      https://b…  2005
# ℹ 80 more rows
…
filter() is a function that allows you to keep rows of interest (but won’t change the order of your rows)

arrange() changes the order of your rows (but won’t filter for anything)

filter() function

Use the filter() function to select rows that correspond to values of interest.

use == to filter the language column for rows with a direct match (in this case spa)

bracero_clean |>
  filter(language == "spa")

# A tibble: 75 × 6
   interviewee              subject        description language  year identifier
   <chr>                    <chr>          <chr>       <chr>    <dbl> <chr>     
 1 Pedro Cantor             Bracero        "Biographi… spa       2005 https://b…
 2 Asterio López León       Bracero        "Biographi… spa       2006 https://b…
 3 Vincente Delgado         Bracero        "Biographi… spa       2005 https://b…
 4 Manuel Enriquez Savignac Bureau of Emp… "Biographi… spa       2003 https://b…
 5 Alberto Montes González  Bracero        "Biographi… spa       2005 https://b…
 6 Jesús Ortíz Torres       Bracero        "Biographi… spa       2005 https://b…
 7 José G. Corral           Son of a brac… "Biographi… spa       2005 https://b…
 8 Eduardo De Santiago      Bracero        "Biographi… spa       2003 https://b…
 9 Salvador Torres Beltrán  Bracero        "Biographi… spa       2006 https://b…
10 Luis Zamudio Villagomez  Bracero        "Biographi… spa       2005 https://b…
# ℹ 65 more rows
…
Grouping Data

group_by() function

group_by() function is really helpful for sorting your data into groups for analysis.

group_by() function does not change your data, but will change subsequent operations if you use them in tandem with a group_by()

You can also group by multiple columns. In this case, I’ve grouped by both year and language

 bracero_clean |>
  group_by(year, language)

# A tibble: 90 × 6
# Groups:   year, language [6]
   interviewee              subject        description language  year identifier
   <chr>                    <chr>          <chr>       <chr>    <dbl> <chr>     
 1 Richard Hancock          Doña Ana Coun… "Biographi… eng       2003 https://b…
 2 Pedro Cantor             Bracero        "Biographi… spa       2005 https://b…
 3 Asterio López León       Bracero        "Biographi… spa       2006 https://b…
 4 Vincente Delgado         Bracero        "Biographi… spa       2005 https://b…
 5 Inez Rios                Interaction w… "Biographi… eng       2003 https://b…
 6 Manuel Enriquez Savignac Bureau of Emp… "Biographi… spa       2003 https://b…
 7 Alberto Montes González  Bracero        "Biographi… spa       2005 https://b…
 8 Ernesto Espino           Son of bracero "Biographi… eng       2005 https://b…
 9 Jesús Ortíz Torres       Bracero        "Biographi… spa       2005 https://b…
10 José G. Corral           Son of a brac… "Biographi… spa       2005 https://b…
# ℹ 80 more rows
…
