ES-202 Course Website – [Assess] Group Projects
…
Spatial Operations

Sometimes, we want to select data based on its spatial attributes, rather than numeric/character attributes.

Spatial operations are lovely for this reason!

brkln_rats

Simple feature collection with 5169 features and 5 fields
Geometry type: POINT
Dimension:     XY
Bounding box:  xmin: -74.03695 ymin: 40.5721 xmax: -73.85655 ymax: 40.73692
Geodetic CRS:  WGS 84
# A tibble: 5,169 × 6
    jb_____ inspctn_t  inspctn_d        jb_prgr result             geometry
      <dbl> <chr>      <chr>              <dbl> <chr>           <POINT [°]>
 1 14137326 Initial    08/01/2025 08:1…       1 Rat A…  (-73.9383 40.68687)
 2 14137670 Initial    08/01/2025 08:5…       1 Rat A… (-73.92992 40.70549)
 3 14137481 Compliance 08/01/2025 09:0…       4 Rat A… (-73.94362 40.68193)
 4 14137661 Compliance 08/01/2025 09:0…       2 Rat A… (-73.94177 40.70747)
 5 14137115 Initial    08/01/2025 09:1…       1 Rat A…  (-73.94126 40.6991)
 6 14137116 Initial    08/01/2025 09:1…       1 Rat A… (-73.94124 40.69902)
 7 14137484 Initial    08/01/2025 09:2…       1 Rat A… (-73.94307 40.68184)
 8 14137747 Initial    08/01/2025 09:2…       1 Rat A… (-73.96871 40.64889)
 9 14137485 Compliance 08/01/2025 09:2…      14 Rat A…  (-73.9429 40.68186)
10 14137662 Compliance 08/01/2025 09:3…       2 Rat A… (-73.94399 40.70872)
# ℹ 5,159 more rows
…
