ES-202 Course Website – [Assess] Bracero Farmworker Case Study
…
select(): chooses what columns you want in your dataframe

rename(): changes the names of current columns

relocate(): changes the position of those columns

mutate() function

We use the mutate function to change the date column to a date format.

bracero |>
  mutate(date_format = as.Date(date)) 

# A tibble: 90 × 7
   title               subject description date  identifier language date_format
   <chr>               <chr>   <chr>       <chr> <chr>      <chr>    <date>     
 1 Richard Hancock     Doña A… "Biographi… 2003… https://b… eng      2003-04-21 
 2 Pedro Cantor        Bracero "Biographi… 2005… https://b… spa      2005-07-27 
 3 Asterio López León  Bracero "Biographi… 2006… https://b… spa      2006-05-22 
 4 Vincente Delgado    Bracero "Biographi… 2005… https://b… spa      2005-09-01 
 5 Inez Rios           Intera… "Biographi… 2003… https://b… eng      2003-01-31 
 6 Manuel Enriquez Sa… Bureau… "Biographi… 2003… https://b… spa      2003-02-06 
 7 Alberto Montes Gon… Bracero "Biographi… 2005… https://b… spa      2005-07-27 
 8 Ernesto Espino      Son of… "Biographi… 2005… https://b… eng      2005-11-12 
 9 Jesús Ortíz Torres  Bracero "Biographi… 2005… https://b… spa      2005-08-31 
10 José G. Corral      Son of… "Biographi… 2005… https://b… spa      2005-11-12 
# ℹ 80 more rows

mutate() function (cont.)

We can also use mutate for creating new columns, and we can pair it with additional functions, such as ifelse statements.

Perhaps we were interested in creating a new column that defines whether an interview is from a bracero worker or not.

Note that if we wanted to further classify the subject, we might create a factor column and use the case_match() function, rather than an ifelse statement.

bracero |> 
  mutate(subject_binary = ifelse(subject %in% c("bracero", "Bracero"), "Bracero", "Non-Bracero" )) 

# A tibble: 90 × 7
   title            subject description date  identifier language subject_binary
   <chr>            <chr>   <chr>       <chr> <chr>      <chr>    <chr>         
 1 Richard Hancock  Doña A… "Biographi… 2003… https://b… eng      Non-Bracero   
 2 Pedro Cantor     Bracero "Biographi… 2005… https://b… spa      Bracero       
 3 Asterio López L… Bracero "Biographi… 2006… https://b… spa      Bracero       
 4 Vincente Delgado Bracero "Biographi… 2005… https://b… spa      Bracero       
 5 Inez Rios        Intera… "Biographi… 2003… https://b… eng      Non-Bracero   
 6 Manuel Enriquez… Bureau… "Biographi… 2003… https://b… spa      Non-Bracero   
 7 Alberto Montes … Bracero "Biographi… 2005… https://b… spa      Bracero       
 8 Ernesto Espino   Son of… "Biographi… 2005… https://b… eng      Non-Bracero   
 9 Jesús Ortíz Tor… Bracero "Biographi… 2005… https://b… spa      Bracero       
10 José G. Corral   Son of… "Biographi… 2005… https://b… spa      Non-Bracero   
# ℹ 80 more rows
…
rename() function

sometimes original column names aren’t very descriptive, or they’re too long.

the rename() function can help.

let’s rename “title” to something more descriptive.

bracero |>
  rename("interviewee" = "title")

# A tibble: 90 × 6
   interviewee              subject        description date  identifier language
   <chr>                    <chr>          <chr>       <chr> <chr>      <chr>   
 1 Richard Hancock          Doña Ana Coun… "Biographi… 2003… https://b… eng     
 2 Pedro Cantor             Bracero        "Biographi… 2005… https://b… spa     
 3 Asterio López León       Bracero        "Biographi… 2006… https://b… spa     
 4 Vincente Delgado         Bracero        "Biographi… 2005… https://b… spa     
 5 Inez Rios                Interaction w… "Biographi… 2003… https://b… eng     
 6 Manuel Enriquez Savignac Bureau of Emp… "Biographi… 2003… https://b… spa     
 7 Alberto Montes González  Bracero        "Biographi… 2005… https://b… spa     
 8 Ernesto Espino           Son of bracero "Biographi… 2005… https://b… eng     
 9 Jesús Ortíz Torres       Bracero        "Biographi… 2005… https://b… spa     
10 José G. Corral           Son of a brac… "Biographi… 2005… https://b… spa     
# ℹ 80 more rows

relocate() function

Say we want the identifier column at the very end of the dataframe

relocate automatically puts the column at the front, so you have to specify .after or .before.

bracero |> 
 relocate(identifier, .after = language)

# A tibble: 90 × 6
   title                    subject        description date  language identifier
   <chr>                    <chr>          <chr>       <chr> <chr>    <chr>     
 1 Richard Hancock          Doña Ana Coun… "Biographi… 2003… eng      https://b…
 2 Pedro Cantor             Bracero        "Biographi… 2005… spa      https://b…
 3 Asterio López León       Bracero        "Biographi… 2006… spa      https://b…
 4 Vincente Delgado         Bracero        "Biographi… 2005… spa      https://b…
 5 Inez Rios                Interaction w… "Biographi… 2003… eng      https://b…
 6 Manuel Enriquez Savignac Bureau of Emp… "Biographi… 2003… spa      https://b…
 7 Alberto Montes González  Bracero        "Biographi… 2005… spa      https://b…
 8 Ernesto Espino           Son of bracero "Biographi… 2005… eng      https://b…
 9 Jesús Ortíz Torres       Bracero        "Biographi… 2005… spa      https://b…
10 José G. Corral           Son of a brac… "Biographi… 2005… spa      https://b…
# ℹ 80 more rows
…
arrange() changes the order of your rows (but won’t filter for anything)

filter() function

Use the filter() function to select rows that correspond to values of interest.

Say we’re interested in only interviews that are spoken in spanish:

use == to filter for a direct match

bracero_clean |>
  filter(language == "spa")

# A tibble: 75 × 6
   interviewee              subject  description language date_format identifier
   <chr>                    <chr>    <chr>       <chr>    <date>      <chr>     
 1 Pedro Cantor             Bracero  "Biographi… spa      2005-07-27  https://b…
 2 Asterio López León       Bracero  "Biographi… spa      2006-05-22  https://b…
 3 Vincente Delgado         Bracero  "Biographi… spa      2005-09-01  https://b…
 4 Manuel Enriquez Savignac Bureau … "Biographi… spa      2003-02-06  https://b…
 5 Alberto Montes González  Bracero  "Biographi… spa      2005-07-27  https://b…
 6 Jesús Ortíz Torres       Bracero  "Biographi… spa      2005-08-31  https://b…
 7 José G. Corral           Son of … "Biographi… spa      2005-11-12  https://b…
 8 Eduardo De Santiago      Bracero  "Biographi… spa      2003-03-03  https://b…
 9 Salvador Torres Beltrán  Bracero  "Biographi… spa      2006-05-22  https://b…
10 Luis Zamudio Villagomez  Bracero  "Biographi… spa      2005-07-27  https://b…
# ℹ 65 more rows
…
If you’re interested in reading descriptions, you can type “bracero_clean$description[]” with the row number in brackets to print the description in your environment window.

Grouping Data

group_by() function

group_by() function is really helpful for dividing your data into groups for analysis.

group_by() function does not change your data, but will change subsequent operations if you use them in tandem with a group_by()

bracero_clean |> 
  group_by(language)

# A tibble: 90 × 6
# Groups:   language [2]
   interviewee              subject  description language date_format identifier
   <chr>                    <chr>    <chr>       <chr>    <date>      <chr>     
 1 Richard Hancock          Doña An… "Biographi… eng      2003-04-21  https://b…
 2 Pedro Cantor             Bracero  "Biographi… spa      2005-07-27  https://b…
 3 Asterio López León       Bracero  "Biographi… spa      2006-05-22  https://b…
 4 Vincente Delgado         Bracero  "Biographi… spa      2005-09-01  https://b…
 5 Inez Rios                Interac… "Biographi… eng      2003-01-31  https://b…
 6 Manuel Enriquez Savignac Bureau … "Biographi… spa      2003-02-06  https://b…
 7 Alberto Montes González  Bracero  "Biographi… spa      2005-07-27  https://b…
 8 Ernesto Espino           Son of … "Biographi… eng      2005-11-12  https://b…
 9 Jesús Ortíz Torres       Bracero  "Biographi… spa      2005-08-31  https://b…
10 José G. Corral           Son of … "Biographi… spa      2005-11-12  https://b…
# ℹ 80 more rows
…
